{
  "dockerImageBuilder": "cimg/go:1.14",
  "inputs": [
    {
      "label": "Digite o nome da aba: ",
      "name": "input_nome_aba",
      "type": "text",
      "required": true
    },
    {
      "label": "Digite a coluna e as linhas de início e final referente ao item \"Performance\" (ex D 1 5): ",
      "name": "input_colunas_performance",
      "type": "text",
      "required": true
    },
    {
      "label": "Digite as coluna de início e final referente ao item \"Nível técnico\" (ex D 1 5): ",
      "name": "input_colunas_nivel",
      "type": "text",
      "required": true
    },
    {
      "label": "Digite as coluna de início e final referente ao item \"Trabalho em equipe\" (ex D 1 5): ",
      "name": "input_colunas_trabalho",
      "type": "text",
      "required": true
    },
    {
      "label": "Digite as coluna de início e final referente ao item \"Cultura e propósito vivos\" (ex D 1 5): ",
      "name": "input_colunas_cultura",
      "type": "text",
      "required": true
    }
  ]
}